[header]
width=30
height=15
tilewidth=16
tileheight=16
orientation=orthogonal

[tilesets]
tileset=../textures/sprite_sheet8x8GB7B.png,16,16,0,0

[layer]
type=Tilelaag 1
data=
0,0,0,0,0,0,0,0,0,0,0,0,0,0,0,0,0,0,0,0,0,0,0,0,0,0,0,0,0,0,
0,0,0,0,0,0,0,0,0,0,0,0,0,0,0,0,0,0,0,0,0,0,0,0,0,0,0,0,0,0,
0,0,0,0,0,0,0,0,0,0,0,0,0,0,0,0,0,0,0,0,0,0,0,0,0,0,0,0,0,0,
200,0,0,0,0,0,0,0,0,0,0,0,0,0,0,0,0,0,0,0,0,0,0,0,0,0,0,0,0,0,
0,0,0,0,0,0,0,0,0,0,0,0,0,0,0,0,0,0,0,0,0,0,0,0,0,0,0,0,0,0,
0,0,0,0,0,0,200,0,0,0,0,200,0,0,0,0,0,0,0,200,0,0,0,0,0,200,0,0,0,0,
0,168,0,0,0,0,0,0,0,0,0,0,0,0,0,0,0,0,0,0,0,0,0,0,0,0,0,0,0,0,
0,0,0,33,0,0,0,0,0,0,0,0,0,0,0,0,0,0,0,0,0,0,0,0,0,0,0,0,0,0,
6,7,7,7,8,0,0,0,168,0,0,0,0,0,0,0,0,0,0,0,0,0,0,0,0,0,168,0,0,0,
38,324,34,34,40,0,33,0,0,289,0,33,289,0,0,33,0,33,289,0,289,33,0,0,33,0,0,0,0,0,
6,7,7,7,7,7,7,7,7,7,7,7,7,7,7,7,7,7,7,7,7,7,7,7,7,7,7,7,7,8,
38,39,39,39,39,39,39,39,39,39,39,39,39,39,39,39,39,39,39,39,39,39,39,39,39,39,39,39,39,40,
38,39,39,41,39,39,39,39,41,39,39,39,39,41,39,39,39,39,41,39,39,39,39,41,39,39,39,39,41,40,
38,39,39,73,39,39,39,39,73,39,39,39,39,73,39,39,39,39,73,39,39,39,39,73,39,39,39,39,73,40,
38,39,39,73,39,39,39,39,73,39,39,39,39,73,39,39,39,39,73,39,39,39,39,73,39,39,39,39,73,40

